,departement,prix/m**2
0,AIN,33.45104187274652
1,AISNE,33.56036409663609
2,ALLIER,33.89926299069379
3,ALPES-DE-HAUTE-PROVENCE,33.89926299069377
4,ALPES-MARITIMES,33.52372637835961
5,ARDECHE,33.75300136273204
6,ARDENNES,33.60362778523918
7,ARIEGE,33.899262990693764
8,AUBE,9.17147872638437
9,AUDE,8.71044983696226
10,AVEYRON,9.968370575665242
11,BAS-RHIN,13.266165336149019
12,BOUCHES-DU-RHONE,15.913776510156922
13,CALVADOS,11.940400742482849
14,CANTAL,9.022097460075004
15,CHARENTE,8.716631716620437
16,CHARENTE-MARITIME,11.760863965319862
17,CHER,7.390506204287525
18,CORREZE,8.672797768423521
19,CORSE-DU-SUD,23.94974402251042
20,COTE-D'OR,11.189038937182586
21,COTES-D'ARMOR,9.598005562212611
22,DEUX-SEVRES,7.959183839325532
23,DORDOGNE,9.142503134114696
24,DOUBS,10.01976857193025
25,DROME,9.52972225918684
26,ESSONNE,16.557249143999446
27,EURE,10.69667406678597
28,EURE-ET-LOIR,10.041872708151638
29,FINISTERE,9.690749646122507
30,GARD,12.904435055702418
31,GERS,8.015095284346106
32,GIRONDE,14.284660939484608
33,HAUT-RHIN,14.698689932967824
34,HAUTE-CORSE,13.117927248467668
35,HAUTE-GARONNE,12.984022533571931
36,HAUTE-LOIRE,8.333066255778121
37,HAUTE-MARNE,7.703348176886432
38,HAUTE-SAONE,8.43792856590522
39,HAUTE-SAVOIE,15.264736224326375
40,HAUTE-VIENNE,19.25276992375663
41,HAUTES-ALPES,33.60362778523918
42,HAUTES-PYRENEES,8.692254345484303
43,HAUTS-DE-SEINE,25.496406429272362
44,HERAULT,15.001988051495024
45,ILLE-ET-VILAINE,18.012104304584632
46,INDRE,8.029359526212694
47,INDRE-ET-LOIRE,13.351272203115075
48,ISERE,13.275818202663157
49,JURA,8.03050038350042
50,LANDES,10.07621731057149
51,LOIR-ET-CHER,9.712801505135754
52,LOIRE,11.225256919293043
53,LOIRE-ATLANTIQUE,13.46763408920534
54,LOIRET,13.75104261400905
55,LOT,8.40434065616279
56,LOT-ET-GARONNE,8.522825798795928
57,LOZERE,10.571428571428571
58,MAINE-ET-LOIRE,9.72615813034605
59,MANCHE,9.53720096502348
60,MARNE,9.565214971939412
61,MAYENNE,11.188793720223224
62,MEURTHE-ET-MOSELLE,14.526799799822234
63,MEUSE,7.603003985977379
64,MORBIHAN,10.279879031948166
65,MOSELLE,12.166823160862137
66,NIEVRE,8.114195257833911
67,NORD,14.13161631728795
68,OISE,13.465048645931928
69,ORNE,8.533257101033781
70,PARIS,41.93790904111217
71,PAS-DE-CALAIS,10.336397439758136
72,PUY-DE-DOME,14.036104885402999
73,PYRENEES-ATLANTIQUES,11.413056401281098
74,PYRENEES-ORIENTALES,17.92752738933298
75,RHONE,13.914705502080333
76,SAONE-ET-LOIRE,8.369116608415077
77,SARTHE,24.200926779079467
78,SAVOIE,12.06198034670341
79,SEINE-ET-MARNE,15.41391757664217
80,SEINE-MARITIME,15.574579494417598
81,SEINE-SAINT-DENIS,21.170801240767624
82,SOMME,24.901796711086206
83,TARN,8.22200741959448
84,TARN-ET-GARONNE,7.869241605528843
85,TERRITOIRE DE BELFORT,9.519932062465143
86,VAL-D'OISE,17.668987603945244
87,VAL-DE-MARNE,21.182945646925546
88,VAR,16.081128397852694
89,VAUCLUSE,12.388371052740542
90,VENDEE,10.255726594085743
91,VIENNE,9.433881369871251
92,VOSGES,7.853463508122539
93,YONNE,9.38802331190521
94,YVELINES,18.404392157339732
