,departement,ville,prix/m**2
0,AIN,AMBERIEU EN BUGEY,33.29513887519963
1,AIN,BELLEGARDE SUR VALSERINE,33.899262990693764
2,AIN,BOURG EN BRESSE,33.29513887519963
3,AIN,OYONNAX,33.29513887519963
4,AISNE,CHATEAU THIERRY,33.29513887519963
5,AISNE,CHAUNY,33.29513887519963
6,AISNE,LAON,33.899262990693764
7,AISNE,SOISSONS,33.899262990693764
8,AISNE,ST QUENTIN,33.899262990693764
9,AISNE,TERGNIER,33.29513887519963
10,AISNE,VILLERS COTTERETS,33.29513887519963
11,ALLIER,CUSSET,33.899262990693764
12,ALLIER,MONTLUCON,33.899262990693764
13,ALLIER,MOULINS,33.899262990693764
14,ALLIER,VICHY,33.899262990693764
15,ALLIER,YZEURE,33.899262990693764
16,ALPES-DE-HAUTE-PROVENCE,DIGNE LES BAINS,33.899262990693764
17,ALPES-DE-HAUTE-PROVENCE,MANOSQUE,33.899262990693764
18,ALPES-MARITIMES,ANTIBES,33.29513887519963
19,ALPES-MARITIMES,BEAUSOLEIL,33.29513887519963
20,ALPES-MARITIMES,CAGNES SUR MER,33.29513887519963
21,ALPES-MARITIMES,CANNES,33.29513887519963
22,ALPES-MARITIMES,CARROS,33.29513887519963
23,ALPES-MARITIMES,GRASSE,33.899262990693764
24,ALPES-MARITIMES,LA TRINITE,33.29513887519963
25,ALPES-MARITIMES,LE CANNET,33.29513887519963
26,ALPES-MARITIMES,MANDELIEU LA NAPOULE,33.899262990693764
27,ALPES-MARITIMES,MENTON,33.899262990693764
28,ALPES-MARITIMES,MOUANS SARTOUX,33.29513887519963
29,ALPES-MARITIMES,MOUGINS,33.899262990693764
30,ALPES-MARITIMES,NICE,33.899262990693764
31,ALPES-MARITIMES,ROQUEBRUNE CAP MARTIN,33.29513887519963
32,ALPES-MARITIMES,ST LAURENT DU VAR,33.29513887519963
33,ALPES-MARITIMES,VALBONNE,33.29513887519963
34,ALPES-MARITIMES,VALLAURIS,33.899262990693764
35,ALPES-MARITIMES,VENCE,33.899262990693764
36,ALPES-MARITIMES,VILLENEUVE LOUBET,33.29513887519963
37,ARDECHE,ANNONAY,33.29513887519963
38,ARDECHE,AUBENAS,33.899262990693764
39,ARDECHE,GUILHERAND GRANGES,33.899262990693764
40,ARDECHE,TOURNON SUR RHONE,33.899262990693764
41,ARDENNES,CHARLEVILLE MEZIERES,33.29513887519963
42,ARDENNES,SEDAN,33.899262990693764
43,ARIEGE,PAMIERS,33.899262990693764
44,AUBE,LA CHAPELLE ST LUC,7.4629981640517915
45,AUBE,ROMILLY SUR SEINE,7.991759986218442
46,AUBE,ST ANDRE LES VERGERS,9.841112341908872
47,AUBE,STE SAVINE,10.629999613720457
48,AUBE,TROYES,9.797637724949068
49,AUDE,CARCASSONNE,8.317751265561464
50,AUDE,CASTELNAUDARY,8.127251595011474
51,AUDE,LEZIGNAN CORBIERES,8.349827065235614
52,AUDE,LIMOUX,8.441008411989278
53,AUDE,NARBONNE,10.165044262434906
54,AVEYRON,MILLAU,11.36317634229119
55,AVEYRON,ONET LE CHATEAU,8.61810132983447
56,AVEYRON,VILLEFRANCHE DE ROUERGUE,7.638297872340425
57,BAS-RHIN,BISCHHEIM,12.95225580440994
58,BAS-RHIN,BISCHWILLER,10.191377716785412
59,BAS-RHIN,ERSTEIN,10.890406817318867
60,BAS-RHIN,HAGUENAU,10.482746422913536
61,BAS-RHIN,ILLKIRCH GRAFFENSTADEN,11.834219088866304
62,BAS-RHIN,LINGOLSHEIM,13.136949673491774
63,BAS-RHIN,OBERNAI,11.03131822362987
64,BAS-RHIN,OSTWALD,12.21202893626918
65,BAS-RHIN,SAVERNE,9.156172834134981
66,BAS-RHIN,SCHILTIGHEIM,12.727449283095934
67,BAS-RHIN,SELESTAT,9.922967360227117
68,BAS-RHIN,STRASBOURG,32.35520984311895
69,BOUCHES-DU-RHONE,AIX EN PROVENCE,22.628262326070935
70,BOUCHES-DU-RHONE,ALLAUCH,15.223410760283958
71,BOUCHES-DU-RHONE,ARLES,33.29513887519963
72,BOUCHES-DU-RHONE,AUBAGNE,13.533799080741652
73,BOUCHES-DU-RHONE,AURIOL,13.779651519267112
74,BOUCHES-DU-RHONE,BERRE L ETANG,14.022930584803452
75,BOUCHES-DU-RHONE,BOUC BEL AIR,15.722243781687602
76,BOUCHES-DU-RHONE,CHATEAUNEUF LES MARTIGUES,13.739176046879
77,BOUCHES-DU-RHONE,CHATEAURENARD,10.472416724147772
78,BOUCHES-DU-RHONE,FOS SUR MER,13.811129328327075
79,BOUCHES-DU-RHONE,GARDANNE,15.602458739439415
80,BOUCHES-DU-RHONE,ISTRES,32.29940768712655
81,BOUCHES-DU-RHONE,LA CIOTAT,18.564726475484704
82,BOUCHES-DU-RHONE,LES PENNES MIRABEAU,14.897292256408013
83,BOUCHES-DU-RHONE,MARIGNANE,13.969549921237995
84,BOUCHES-DU-RHONE,MARSEILLE 01,15.117013330221218
85,BOUCHES-DU-RHONE,MARSEILLE 02,19.241849237292556
86,BOUCHES-DU-RHONE,MARSEILLE 03,13.334578022170898
87,BOUCHES-DU-RHONE,MARSEILLE 04,14.147457504923143
88,BOUCHES-DU-RHONE,MARSEILLE 05,12.634947865928007
89,BOUCHES-DU-RHONE,MARSEILLE 06,16.550799381025502
90,BOUCHES-DU-RHONE,MARSEILLE 07,19.410823858731103
91,BOUCHES-DU-RHONE,MARSEILLE 08,15.289750124381358
92,BOUCHES-DU-RHONE,MARSEILLE 09,14.571203472256661
93,BOUCHES-DU-RHONE,MARSEILLE 10,13.946715918384383
94,BOUCHES-DU-RHONE,MARSEILLE 11,13.599274244588354
95,BOUCHES-DU-RHONE,MARSEILLE 12,14.826363108619912
96,BOUCHES-DU-RHONE,MARSEILLE 13,14.21290612340507
97,BOUCHES-DU-RHONE,MARSEILLE 14,14.940132618783458
98,BOUCHES-DU-RHONE,MARSEILLE 15,12.534054713276454
99,BOUCHES-DU-RHONE,MARSEILLE 16,13.292595134119438
100,BOUCHES-DU-RHONE,MARTIGUES,15.372500227695589
101,BOUCHES-DU-RHONE,MIRAMAS,12.04391568119298
102,BOUCHES-DU-RHONE,PLAN DE CUQUES,12.739500333724244
103,BOUCHES-DU-RHONE,PORT DE BOUC,12.901873087483194
104,BOUCHES-DU-RHONE,ROGNAC,12.70472045907367
105,BOUCHES-DU-RHONE,SALON DE PROVENCE,11.069666847539372
106,BOUCHES-DU-RHONE,SEPTEMES LES VALLONS,12.358019064320144
107,BOUCHES-DU-RHONE,ST MARTIN DE CRAU,11.209697615732836
108,BOUCHES-DU-RHONE,ST REMY DE PROVENCE,11.57245215219468
109,BOUCHES-DU-RHONE,TARASCON,8.572702157722668
110,BOUCHES-DU-RHONE,TRETS,13.18699755778883
111,BOUCHES-DU-RHONE,VITROLLES,15.409895583577462
112,CALVADOS,BAYEUX,11.105072892854023
113,CALVADOS,CAEN,16.09753851309049
114,CALVADOS,HEROUVILLE ST CLAIR,11.404478476863655
115,CALVADOS,IFS,10.767826681536812
116,CALVADOS,LISIEUX,10.36285841131964
117,CALVADOS,VIRE,7.581477790432802
118,CANTAL,AURILLAC,9.022097460075004
119,CHARENTE,ANGOULEME,9.04960914807034
120,CHARENTE,COGNAC,9.00876236405639
121,CHARENTE,SOYAUX,7.413300895678537
122,CHARENTE-MARITIME,LA ROCHELLE,15.514261301526103
123,CHARENTE-MARITIME,ROCHEFORT,11.844468597834389
124,CHARENTE-MARITIME,ROYAN,11.25927091140551
125,CHARENTE-MARITIME,SAINTES,8.596064020341007
126,CHER,BOURGES,10.195740634042977
127,CHER,ST AMAND MONTROND,4.600260889709483
128,CHER,VIERZON,6.431695295338135
129,CORREZE,BRIVE LA GAILLARDE,9.639392681382766
130,CORREZE,TULLE,7.6524047763391305
131,CORREZE,USSEL,7.693195963506309
132,CORSE-DU-SUD,AJACCIO,25.829066259260944
133,CORSE-DU-SUD,PORTO VECCHIO,12.942285207257385
134,COTE-D'OR,BEAUNE,11.907126284412815
135,COTE-D'OR,CHENOVE,10.245243797337801
136,COTE-D'OR,CHEVIGNY ST SAUVEUR,11.427948731242871
137,COTE-D'OR,DIJON,12.227346366983788
138,COTE-D'OR,TALANT,10.28288393341295
139,COTES-D'ARMOR,DINAN,10.472811508164737
140,COTES-D'ARMOR,LAMBALLE,9.840411840411841
141,COTES-D'ARMOR,LANNION,9.822100854095737
142,COTES-D'ARMOR,LOUDEAC,8.856060606060607
143,COTES-D'ARMOR,PLERIN,10.558902598829565
144,COTES-D'ARMOR,PLOUFRAGAN,9.929078872532962
145,COTES-D'ARMOR,ST BRIEUC,8.441192246024045
146,DEUX-SEVRES,BRESSUIRE,7.982074263764405
147,DEUX-SEVRES,NIORT,8.985412320599846
148,DEUX-SEVRES,PARTHENAY,6.979643340546289
149,DORDOGNE,BERGERAC,8.678062423568935
150,DORDOGNE,PERIGUEUX,9.787559676539363
151,DOUBS,AUDINCOURT,7.288943254094335
152,DOUBS,BESANCON,11.175080004311052
153,DOUBS,MONTBELIARD,9.179897139266078
154,DOUBS,PONTARLIER,11.422861037550673
155,DOUBS,VALENTIGNEY,9.006588006112752
156,DROME,BOURG DE PEAGE,8.894200563315737
157,DROME,BOURG LES VALENCE,9.553244495732681
158,DROME,MONTELIMAR,10.39226313300143
159,DROME,PIERRELATTE,9.276897951512673
160,DROME,ROMANS SUR ISERE,8.562167680976044
161,DROME,VALENCE,10.162777204970087
162,ESSONNE,ARPAJON,16.2367235766541
163,ESSONNE,ATHIS MONS,16.343529513086956
164,ESSONNE,BRETIGNY SUR ORGE,15.062415596198113
165,ESSONNE,BRUNOY,15.783419162911494
166,ESSONNE,CHILLY MAZARIN,15.106111191684992
167,ESSONNE,CORBEIL ESSONNES,13.91294907554142
168,ESSONNE,COURCOURONNES,15.650423212117994
169,ESSONNE,DRAVEIL,15.326594327238187
170,ESSONNE,EPINAY SOUS SENART,13.243152511750093
171,ESSONNE,EPINAY SUR ORGE,16.76995602580302
172,ESSONNE,ETAMPES,13.662984100008083
173,ESSONNE,EVRY,14.342873070311674
174,ESSONNE,GIF SUR YVETTE,15.765518924813984
175,ESSONNE,GRIGNY,13.337458273686797
176,ESSONNE,IGNY,18.436552660513776
177,ESSONNE,JUVISY SUR ORGE,18.641679706898678
178,ESSONNE,LES ULIS,14.332704445930972
179,ESSONNE,LONGJUMEAU,15.975502698189041
180,ESSONNE,MASSY,24.88829359717712
181,ESSONNE,MENNECY,15.671249274752148
182,ESSONNE,MONTGERON,17.829538460421194
183,ESSONNE,MORANGIS,16.397635137974905
184,ESSONNE,MORSANG SUR ORGE,16.311107338587274
185,ESSONNE,ORSAY,19.932981432568425
186,ESSONNE,PALAISEAU,17.18430227423138
187,ESSONNE,RIS ORANGIS,16.005622453127483
188,ESSONNE,SAVIGNY SUR ORGE,17.736809350560257
189,ESSONNE,ST MICHEL SUR ORGE,19.10908172679857
190,ESSONNE,STE GENEVIEVE DES BOIS,16.166645904909487
191,ESSONNE,VERRIERES LE BUISSON,17.97321277713924
192,ESSONNE,VIGNEUX SUR SEINE,16.644338712117804
193,ESSONNE,VIRY CHATILLON,15.944054585446892
194,ESSONNE,YERRES,18.097207869514406
195,EURE,BERNAY,9.175787277334555
196,EURE,EVREUX,11.952821468056941
197,EURE,GISORS,11.545179132349494
198,EURE,LOUVIERS,9.716163588001695
199,EURE,VAL DE REUIL,9.966656174734734
200,EURE,VERNON,11.687571470806002
201,EURE-ET-LOIR,CHARTRES,11.206525773717951
202,EURE-ET-LOIR,CHATEAUDUN,8.323480516228399
203,EURE-ET-LOIR,DREUX,10.652872615811676
204,EURE-ET-LOIR,LUCE,11.600323566721586
205,EURE-ET-LOIR,MAINVILLIERS,10.16510891150485
206,EURE-ET-LOIR,NOGENT LE ROTROU,8.906877434245262
207,EURE-ET-LOIR,VERNOUILLET,10.097462871287128
208,FINISTERE,BREST,9.53564344571869
209,FINISTERE,CONCARNEAU,10.25415922191221
210,FINISTERE,DOUARNENEZ,8.396141441054123
211,FINISTERE,GUIPAVAS,10.105595427963848
212,FINISTERE,LANDERNEAU,9.435141406420463
213,FINISTERE,LE RELECQ KERHUON,11.21102570898941
214,FINISTERE,MORLAIX,8.005037968520305
215,FINISTERE,PLOUGASTEL DAOULAS,10.704381235385005
216,FINISTERE,PLOUZANE,10.510982570614614
217,FINISTERE,QUIMPER,10.145259090993802
218,FINISTERE,QUIMPERLE,9.383291969102846
219,GARD,ALES,8.848975339553636
220,GARD,BAGNOLS SUR CEZE,9.247143778438547
221,GARD,BEAUCAIRE,8.320291287066203
222,GARD,NIMES,33.29513887519963
223,GARD,PONT ST ESPRIT,8.329076561884497
224,GARD,ST GILLES,9.632924463540379
225,GARD,VAUVERT,10.074716300508094
226,GARD,VILLENEUVE LES AVIGNON,11.19878313894907
227,GERS,AUCH,8.015095284346106
228,GIRONDE,AMBARES ET LAGRAVE,11.29110614704871
229,GIRONDE,ANDERNOS LES BAINS,13.094368415661046
230,GIRONDE,ARCACHON,19.70430714683164
231,GIRONDE,BEGLES,12.49832383533615
232,GIRONDE,BLANQUEFORT,12.152713576958723
233,GIRONDE,BORDEAUX,33.899262990693764
234,GIRONDE,BRUGES,12.46692675878399
235,GIRONDE,CENON,12.091968975880164
236,GIRONDE,CESTAS,10.834318487118903
237,GIRONDE,EYSINES,12.385547350624158
238,GIRONDE,FLOIRAC,12.76069599629014
239,GIRONDE,GRADIGNAN,12.711946104763676
240,GIRONDE,GUJAN MESTRAS,12.433865068052013
241,GIRONDE,LA TESTE DE BUCH,12.31260809924256
242,GIRONDE,LE BOUSCAT,14.091140867660064
243,GIRONDE,LIBOURNE,10.132458025652937
244,GIRONDE,LORMONT,10.244630219038124
245,GIRONDE,MERIGNAC,12.358240908245131
246,GIRONDE,PESSAC,17.578099160919255
247,GIRONDE,ST MEDARD EN JALLES,12.390655018442313
248,GIRONDE,TALENCE,18.49043636753396
249,GIRONDE,VILLENAVE D ORNON,12.107418029019067
250,HAUT-RHIN,CERNAY,11.196514414440605
251,HAUT-RHIN,COLMAR,10.494308378710118
252,HAUT-RHIN,GUEBWILLER,9.680288416701345
253,HAUT-RHIN,ILLZACH,10.907033836610657
254,HAUT-RHIN,KINGERSHEIM,10.137793460319644
255,HAUT-RHIN,MULHOUSE,31.983816791306406
256,HAUT-RHIN,RIEDISHEIM,10.932443574782925
257,HAUT-RHIN,RIXHEIM,11.366605636689817
258,HAUT-RHIN,ST LOUIS,13.173463689492646
259,HAUT-RHIN,WITTELSHEIM,10.224062841016973
260,HAUT-RHIN,WITTENHEIM,10.21426577294083
261,HAUTE-CORSE,BASTIA,13.117927248467668
262,HAUTE-GARONNE,BALMA,12.025814789948077
263,HAUTE-GARONNE,BLAGNAC,12.27998107502288
264,HAUTE-GARONNE,CASTANET TOLOSAN,12.238288192767914
265,HAUTE-GARONNE,COLOMIERS,11.829784101596458
266,HAUTE-GARONNE,CUGNAUX,11.29859973491232
267,HAUTE-GARONNE,FONSORBES,10.28404932647335
268,HAUTE-GARONNE,L UNION,12.556707822614362
269,HAUTE-GARONNE,MURET,10.463496745724733
270,HAUTE-GARONNE,PLAISANCE DU TOUCH,10.502818070535879
271,HAUTE-GARONNE,RAMONVILLE ST AGNE,12.744456504174192
272,HAUTE-GARONNE,ST GAUDENS,8.191549640340053
273,HAUTE-GARONNE,ST ORENS DE GAMEVILLE,11.876067160443398
274,HAUTE-GARONNE,TOULOUSE,33.29513887519963
275,HAUTE-GARONNE,TOURNEFEUILLE,11.728859448835188
276,HAUTE-LOIRE,LE PUY EN VELAY,8.333066255778121
277,HAUTE-MARNE,CHAUMONT,7.619880573100669
278,HAUTE-MARNE,ST DIZIER,7.796635498764638
279,HAUTE-SAONE,HERICOURT,7.166666666666667
280,HAUTE-SAONE,VESOUL,8.512708677625136
281,HAUTE-SAVOIE,ANNECY,16.045067521712678
282,HAUTE-SAVOIE,ANNECY LE VIEUX,16.116595312190583
283,HAUTE-SAVOIE,ANNEMASSE,16.30822035811174
284,HAUTE-SAVOIE,BONNEVILLE,14.642066003915707
285,HAUTE-SAVOIE,CLUSES,11.885858656656739
286,HAUTE-SAVOIE,CRAN GEVRIER,14.634045074506748
287,HAUTE-SAVOIE,GAILLARD,21.12050841144091
288,HAUTE-SAVOIE,LA ROCHE SUR FORON,12.95350528102244
289,HAUTE-SAVOIE,PASSY,13.484848484848484
290,HAUTE-SAVOIE,RUMILLY,12.48692138725994
291,HAUTE-SAVOIE,SALLANCHES,13.398650944564249
292,HAUTE-SAVOIE,SEYNOD,16.798197432669483
293,HAUTE-SAVOIE,ST JULIEN EN GENEVOIS,17.931944696757682
294,HAUTE-SAVOIE,THONON LES BAINS,13.451627972609407
295,HAUTE-VIENNE,LIMOGES,31.418788751386256
296,HAUTE-VIENNE,PANAZOL,8.957155571739492
297,HAUTE-VIENNE,ST JUNIEN,7.82335065500659
298,HAUTES-ALPES,BRIANCON,33.29513887519963
299,HAUTES-ALPES,GAP,33.899262990693764
300,HAUTES-PYRENEES,LOURDES,8.518107914647695
301,HAUTES-PYRENEES,TARBES,8.851888573751191
302,HAUTS-DE-SEINE,ANTONY,19.99481329829072
303,HAUTS-DE-SEINE,ASNIERES SUR SEINE,24.945013900262076
304,HAUTS-DE-SEINE,BAGNEUX,22.609243720095485
305,HAUTS-DE-SEINE,BOIS COLOMBES,30.909508980677238
306,HAUTS-DE-SEINE,BOULOGNE BILLANCOURT,31.783018914070595
307,HAUTS-DE-SEINE,BOURG LA REINE,20.872450677451816
308,HAUTS-DE-SEINE,CHATENAY MALABRY,19.548250467657358
309,HAUTS-DE-SEINE,CHATILLON,24.00273162323979
310,HAUTS-DE-SEINE,CHAVILLE,20.74620207315393
311,HAUTS-DE-SEINE,CLAMART,21.232629925524975
312,HAUTS-DE-SEINE,CLICHY,29.04216409998757
313,HAUTS-DE-SEINE,COLOMBES,25.219010682402054
314,HAUTS-DE-SEINE,COURBEVOIE,30.556716092841956
315,HAUTS-DE-SEINE,FONTENAY AUX ROSES,25.17308301314059
316,HAUTS-DE-SEINE,GARCHES,23.916864764878312
317,HAUTS-DE-SEINE,GENNEVILLIERS,24.950570846088755
318,HAUTS-DE-SEINE,ISSY LES MOULINEAUX,25.400598185549455
319,HAUTS-DE-SEINE,LA GARENNE COLOMBES,23.509217327028132
320,HAUTS-DE-SEINE,LE PLESSIS ROBINSON,18.24141582620984
321,HAUTS-DE-SEINE,LEVALLOIS PERRET,33.90549326707789
322,HAUTS-DE-SEINE,MALAKOFF,26.055466688103934
323,HAUTS-DE-SEINE,MEUDON,28.411578744893212
324,HAUTS-DE-SEINE,MONTROUGE,31.606179503040206
325,HAUTS-DE-SEINE,NANTERRE,20.9961589923983
326,HAUTS-DE-SEINE,NEUILLY SUR SEINE,32.893275941577436
327,HAUTS-DE-SEINE,PUTEAUX,33.9269398764487
328,HAUTS-DE-SEINE,RUEIL MALMAISON,21.975419148500624
329,HAUTS-DE-SEINE,SCEAUX,22.43220099618014
330,HAUTS-DE-SEINE,SEVRES,22.972714246498864
331,HAUTS-DE-SEINE,ST CLOUD,23.43695281612692
332,HAUTS-DE-SEINE,SURESNES,28.503398091671116
333,HAUTS-DE-SEINE,VANVES,31.680151369970964
334,HAUTS-DE-SEINE,VILLE D AVRAY,19.294616548848392
335,HAUTS-DE-SEINE,VILLENEUVE LA GARENNE,16.190063580925457
336,HERAULT,AGDE,13.046684654306418
337,HERAULT,BEZIERS,11.014079291197097
338,HERAULT,CASTELNAU LE LEZ,14.55711595304168
339,HERAULT,FRONTIGNAN,12.411109785960571
340,HERAULT,LATTES,14.904422619394513
341,HERAULT,LUNEL,11.194566348547461
342,HERAULT,MAUGUIO,14.119116951452432
343,HERAULT,MEZE,11.007844367948193
344,HERAULT,MONTPELLIER,33.29513887519963
345,HERAULT,SETE,12.260576253003594
346,ILLE-ET-VILAINE,BETTON,10.597019027955271
347,ILLE-ET-VILAINE,BRUZ,10.055816697845245
348,ILLE-ET-VILAINE,CESSON SEVIGNE,11.109872711599044
349,ILLE-ET-VILAINE,DINARD,11.247965062358709
350,ILLE-ET-VILAINE,FOUGERES,33.29513887519963
351,ILLE-ET-VILAINE,RENNES,33.899262990693764
352,ILLE-ET-VILAINE,ST JACQUES DE LA LANDE,10.939681944001476
353,ILLE-ET-VILAINE,ST MALO,15.111075317216848
354,ILLE-ET-VILAINE,VITRE,9.278774482537758
355,INDRE,CHATEAUROUX,8.877127216361584
356,INDRE,ISSOUDUN,6.051234915865283
357,INDRE-ET-LOIRE,AMBOISE,9.332596616867892
358,INDRE-ET-LOIRE,CHAMBRAY LES TOURS,10.534742617736658
359,INDRE-ET-LOIRE,FONDETTES,10.98094581398892
360,INDRE-ET-LOIRE,JOUE LES TOURS,11.089086462579909
361,INDRE-ET-LOIRE,LA RICHE,11.327048803102194
362,INDRE-ET-LOIRE,MONTLOUIS SUR LOIRE,10.150251144668381
363,INDRE-ET-LOIRE,ST AVERTIN,9.842223622381043
364,INDRE-ET-LOIRE,ST CYR SUR LOIRE,10.967001107874399
365,INDRE-ET-LOIRE,ST PIERRE DES CORPS,10.70399003925414
366,INDRE-ET-LOIRE,TOURS,33.899262990693764
367,ISERE,BOURGOIN JALLIEU,11.373194074227747
368,ISERE,ECHIROLLES,11.332198353721806
369,ISERE,FONTAINE,11.321121293015473
370,ISERE,GRENOBLE,33.899262990693764
371,ISERE,L ISLE D ABEAU,11.568150814686813
372,ISERE,LE PONT DE CLAIX,11.704172056805445
373,ISERE,MEYLAN,13.275287327291696
374,ISERE,SASSENAGE,12.12309429092783
375,ISERE,SEYSSINET PARISET,11.830193320202756
376,ISERE,ST EGREVE,11.942138619089505
377,ISERE,ST MARTIN D HERES,11.397561808340937
378,ISERE,VIENNE,10.54682611855918
379,ISERE,VILLEFONTAINE,10.766841923957267
380,ISERE,VOIRON,9.584039770390108
381,JURA,DOLE,8.457606787917642
382,JURA,LONS LE SAUNIER,8.48021026798639
383,JURA,ST CLAUDE,7.087357785927773
384,LANDES,BISCARROSSE,11.15203250136077
385,LANDES,DAX,7.9571964759984475
386,LANDES,MONT DE MARSAN,9.306529417410529
387,LANDES,ST PAUL LES DAX,10.403731749132222
388,LANDES,TARNOS,11.734210751935903
389,LOIR-ET-CHER,BLOIS,10.80937369271448
390,LOIR-ET-CHER,ROMORANTIN LANTHENAY,8.708066492915922
391,LOIR-ET-CHER,VENDOME,9.495372453249386
392,LOIRE,FIRMINY,8.209133993544448
393,LOIRE,LE CHAMBON FEUGEROLLES,7.810263057662139
394,LOIRE,MONTBRISON,8.357949607714572
395,LOIRE,RIORGES,7.860560822270685
396,LOIRE,RIVE DE GIER,7.165015693800071
397,LOIRE,ROANNE,7.7658866703125895
398,LOIRE,ST CHAMOND,7.514177488098684
399,LOIRE,ST ETIENNE,21.508527950955408
400,LOIRE,ST JUST ST RAMBERT,9.507439542243487
401,LOIRE-ATLANTIQUE,BOUGUENAIS,11.323114784107078
402,LOIRE-ATLANTIQUE,CARQUEFOU,11.685394340229333
403,LOIRE-ATLANTIQUE,CHATEAUBRIANT,7.863503555880435
404,LOIRE-ATLANTIQUE,COUERON,12.335019439263032
405,LOIRE-ATLANTIQUE,GUERANDE,10.940340152893462
406,LOIRE-ATLANTIQUE,LA BAULE ESCOUBLAC,12.356163576156364
407,LOIRE-ATLANTIQUE,LA CHAPELLE SUR ERDRE,11.32808142543603
408,LOIRE-ATLANTIQUE,NANTES,33.899262990693764
409,LOIRE-ATLANTIQUE,ORVAULT,12.690949667447942
410,LOIRE-ATLANTIQUE,PORNIC,11.98020554904663
411,LOIRE-ATLANTIQUE,PORNICHET,14.066233422366228
412,LOIRE-ATLANTIQUE,REZE,12.734548451305848
413,LOIRE-ATLANTIQUE,ST BREVIN LES PINS,11.686472098801406
414,LOIRE-ATLANTIQUE,ST HERBLAIN,11.649603671162522
415,LOIRE-ATLANTIQUE,ST NAZAIRE,12.012946862421776
416,LOIRE-ATLANTIQUE,ST SEBASTIEN SUR LOIRE,12.957500669820483
417,LOIRE-ATLANTIQUE,STE LUCE SUR LOIRE,10.57958870211039
418,LOIRE-ATLANTIQUE,VERTOU,12.06662917371685
419,LOIRET,AMILLY,10.103852499022512
420,LOIRET,CHALETTE SUR LOING,9.454569060907138
421,LOIRET,FLEURY LES AUBRAIS,10.593492741105978
422,LOIRET,GIEN,8.68381811369106
423,LOIRET,OLIVET,11.137066751819148
424,LOIRET,ORLEANS,31.56263887629478
425,LOIRET,SARAN,12.210446069245947
426,LOIRET,ST JEAN DE BRAYE,12.18903397108543
427,LOIRET,ST JEAN DE LA RUELLE,10.879399971969715
428,LOT,CAHORS,8.40434065616279
429,LOT-ET-GARONNE,AGEN,8.632464132744035
430,LOT-ET-GARONNE,MARMANDE,8.531334395939313
431,LOT-ET-GARONNE,VILLENEUVE SUR LOT,8.360150938470522
432,LOZERE,MENDE,10.571428571428571
433,MAINE-ET-LOIRE,ANGERS,
434,MAINE-ET-LOIRE,AVRILLE,11.153107954661529
435,MAINE-ET-LOIRE,CHOLET,9.640354541433638
436,MAINE-ET-LOIRE,LES PONTS DE CE,9.491228070175438
437,MAINE-ET-LOIRE,SAUMUR,8.93490670846512
438,MAINE-ET-LOIRE,TRELAZE,10.696956329951476
439,MANCHE,CHERBOURG OCTEVILLE,9.785373329835906
440,MANCHE,EQUEURDREVILLE HAINNEVILLE,10.307554408919573
441,MANCHE,ST LO,9.030953922181762
442,MANCHE,TOURLAVILLE,8.957015049945582
443,MARNE,CHALONS EN CHAMPAGNE,9.170497661015908
444,MARNE,EPERNAY,8.566274457510074
445,MARNE,REIMS,10.569658724331735
446,MARNE,TINQUEUX,10.485138595399308
447,MARNE,VITRY LE FRANCOIS,7.866950128443617
448,MAYENNE,CHATEAU GONTIER,89.0
449,MAYENNE,LAVAL,9.837520566972126
450,MAYENNE,MAYENNE,7.2944667406397725
451,MEURTHE-ET-MOSELLE,DOMBASLE SUR MEURTHE,8.668475034604917
452,MEURTHE-ET-MOSELLE,LAXOU,10.043075286264973
453,MEURTHE-ET-MOSELLE,LONGWY,8.963649054326082
454,MEURTHE-ET-MOSELLE,LUNEVILLE,8.290561878195284
455,MEURTHE-ET-MOSELLE,NANCY,33.899262990693764
456,MEURTHE-ET-MOSELLE,PONT A MOUSSON,10.855514091935571
457,MEURTHE-ET-MOSELLE,TOUL,8.197656220348158
458,MEURTHE-ET-MOSELLE,VANDOEUVRE LES NANCY,10.210140220506233
459,MEURTHE-ET-MOSELLE,VILLERS LES NANCY,22.363155789611806
460,MEUSE,BAR LE DUC,7.6309836795966905
461,MEUSE,VERDUN,7.533054751929102
462,MORBIHAN,AURAY,10.05418919138412
463,MORBIHAN,GUIDEL,10.380647788515535
464,MORBIHAN,HENNEBONT,10.373673485202845
465,MORBIHAN,LANESTER,10.105272846852019
466,MORBIHAN,LORIENT,10.583740863371148
467,MORBIHAN,PLOEMEUR,11.72896311415528
468,MORBIHAN,PONTIVY,8.514228810810819
469,MORBIHAN,ST AVE,9.88793075372839
470,MORBIHAN,VANNES,11.246669665544411
471,MOSELLE,AMNEVILLE,10.143642099617857
472,MOSELLE,CREUTZWALD,7.026347898410422
473,MOSELLE,FAMECK,11.532179591922239
474,MOSELLE,FLORANGE,10.484394568941042
475,MOSELLE,FORBACH,15.489074510392777
476,MOSELLE,FREYMING MERLEBACH,6.7705297564796325
477,MOSELLE,HAYANGE,9.648533952006902
478,MOSELLE,METZ,23.377041720947684
479,MOSELLE,MONTIGNY LES METZ,10.494481088253446
480,MOSELLE,ROMBAS,9.21847174902784
481,MOSELLE,SARREBOURG,7.463700049111581
482,MOSELLE,SARREGUEMINES,8.503561885865683
483,MOSELLE,ST AVOLD,7.816944783757612
484,MOSELLE,STIRING WENDEL,7.873738851503947
485,MOSELLE,THIONVILLE,11.734523263367725
486,MOSELLE,WOIPPY,10.671220505911338
487,MOSELLE,YUTZ,10.28613226011315
488,NIEVRE,COSNE COURS SUR LOIRE,8.60743115286529
489,NIEVRE,NEVERS,7.685294479545765
490,NORD,ANICHE,9.75804573392028
491,NORD,ANZIN,9.472502991169733
492,NORD,ARMENTIERES,11.686702676262126
493,NORD,BAILLEUL,10.191250023479716
494,NORD,CAMBRAI,10.079470650427142
495,NORD,CAUDRY,9.666109966598993
496,NORD,COMINES,10.381420014453564
497,NORD,COUDEKERQUE BRANCHE,8.506613756613756
498,NORD,CROIX,13.963732618577193
499,NORD,DENAIN,9.263390236042502
500,NORD,DOUAI,10.97586064961853
501,NORD,DUNKERQUE,23.461384226689567
502,NORD,FACHES THUMESNIL,12.58990880359856
503,NORD,HALLUIN,14.772303778373288
504,NORD,HAUBOURDIN,11.885977657962046
505,NORD,HAUTMONT,6.6371681415929205
506,NORD,HAZEBROUCK,9.30415373359229
507,NORD,HEM,11.361861539587556
508,NORD,LA MADELEINE,13.759848125203717
509,NORD,LAMBERSART,12.399481966614003
510,NORD,LILLE,20.800131881136394
511,NORD,LOOS,12.724837718311521
512,NORD,LYS LEZ LANNOY,12.230204171051668
513,NORD,MARCQ EN BAROEUL,14.54923993799252
514,NORD,MARLY,10.129528229638654
515,NORD,MAUBEUGE,9.567155394802633
516,NORD,MONS EN BAROEUL,12.698910861639874
517,NORD,MOUVAUX,13.453786764740247
518,NORD,NEUVILLE EN FERRAIN,10.576923076923078
519,NORD,RAISMES,9.191519580947652
520,NORD,RONCHIN,12.437686909668624
521,NORD,RONCQ,11.51632902134996
522,NORD,ROUBAIX,11.22750878912417
523,NORD,SECLIN,10.872361672855725
524,NORD,SIN LE NOBLE,10.206973461370687
525,NORD,SOMAIN,9.60439476265866
526,NORD,ST AMAND LES EAUX,10.894360406872343
527,NORD,ST ANDRE LEZ LILLE,12.791017089972527
528,NORD,ST SAULVE,10.198615234286668
529,NORD,TOURCOING,10.643069805789287
530,NORD,VALENCIENNES,10.412453941907877
531,NORD,VIEUX CONDE,11.857142857142858
532,NORD,VILLENEUVE D ASCQ,33.899262990693764
533,NORD,WASQUEHAL,12.999458772568897
534,NORD,WATTIGNIES,11.974138423004481
535,NORD,WATTRELOS,9.442390497123355
536,OISE,BEAUVAIS,15.868964124457984
537,OISE,CHANTILLY,16.090408054698003
538,OISE,CLERMONT,12.710402528339888
539,OISE,COMPIEGNE,12.451324831298132
540,OISE,CREIL,12.566653205639446
541,OISE,CREPY EN VALOIS,12.444158470655747
542,OISE,MERU,15.549086529429587
543,OISE,MONTATAIRE,13.767101313788432
544,OISE,NOGENT SUR OISE,11.592693921617789
545,OISE,NOYON,9.912570151544298
546,OISE,PONT STE MAXENCE,13.228620318944298
547,OISE,SENLIS,15.689635663776968
548,ORNE,ALENCON,8.981276758850925
549,ORNE,ARGENTAN,8.3429444357649
550,ORNE,FLERS,7.604942983259953
551,PARIS,PARIS 01,42.89574784831224
552,PARIS,PARIS 02,37.910875765921766
553,PARIS,PARIS 03,60.86000433960927
554,PARIS,PARIS 04,67.97260885157301
555,PARIS,PARIS 05,46.0764414373115
556,PARIS,PARIS 06,55.0746847012016
557,PARIS,PARIS 07,44.01831116517274
558,PARIS,PARIS 08,40.19675396825543
559,PARIS,PARIS 09,41.66887033456989
560,PARIS,PARIS 10,51.99857657508617
561,PARIS,PARIS 11,39.969806356797086
562,PARIS,PARIS 12,30.746607743489363
563,PARIS,PARIS 13,41.61860873703242
564,PARIS,PARIS 14,32.064448348099454
565,PARIS,PARIS 15,32.921815277092634
566,PARIS,PARIS 16,33.29513887519963
567,PARIS,PARIS 17,34.95879837199289
568,PARIS,PARIS 18,48.01314083633078
569,PARIS,PARIS 19,29.76037695807099
570,PARIS,PARIS 20,29.742894011119514
571,PAS-DE-CALAIS,ARRAS,10.625566425704498
572,PAS-DE-CALAIS,AUCHEL,9.174074074074076
573,PAS-DE-CALAIS,AVION,8.70460088163981
574,PAS-DE-CALAIS,BERCK,11.901571744246331
575,PAS-DE-CALAIS,BETHUNE,9.647006588886889
576,PAS-DE-CALAIS,BOULOGNE SUR MER,13.090802691321693
577,PAS-DE-CALAIS,BRUAY LA BUISSIERE,8.675276313062037
578,PAS-DE-CALAIS,BULLY LES MINES,7.108676207513417
579,PAS-DE-CALAIS,CALAIS,8.703784904130606
580,PAS-DE-CALAIS,CARVIN,13.566760037348272
581,PAS-DE-CALAIS,ETAPLES,10.316649465315102
582,PAS-DE-CALAIS,HENIN BEAUMONT,11.22028455513029
583,PAS-DE-CALAIS,LENS,11.01453520117697
584,PAS-DE-CALAIS,LIEVIN,9.725320083753818
585,PAS-DE-CALAIS,LILLERS,11.396379838485101
586,PAS-DE-CALAIS,LONGUENESSE,8.176470588235293
587,PAS-DE-CALAIS,MONTIGNY EN GOHELLE,9.19487635636159
588,PAS-DE-CALAIS,NOEUX LES MINES,10.72765193970273
589,PAS-DE-CALAIS,OIGNIES,10.521926284638148
590,PAS-DE-CALAIS,OUTREAU,9.27738308422037
591,PAS-DE-CALAIS,ST MARTIN BOULOGNE,10.337422200441068
592,PAS-DE-CALAIS,ST OMER,9.318406842650775
593,PUY-DE-DOME,BEAUMONT,10.945367557320596
594,PUY-DE-DOME,CHAMALIERES,10.501354536143493
595,PUY-DE-DOME,CLERMONT FERRAND,33.899262990693764
596,PUY-DE-DOME,COURNON D AUVERGNE,10.023784906641627
597,PUY-DE-DOME,GERZAT,10.31179477125273
598,PUY-DE-DOME,ISSOIRE,8.160162040534264
599,PUY-DE-DOME,PONT DU CHATEAU,8.85464645049575
600,PUY-DE-DOME,RIOM,8.760919372982736
601,PUY-DE-DOME,THIERS,11.0
602,PYRENEES-ATLANTIQUES,ANGLET,14.15037244004437
603,PYRENEES-ATLANTIQUES,BAYONNE,11.999200681711276
604,PYRENEES-ATLANTIQUES,BIARRITZ,14.127619616869113
605,PYRENEES-ATLANTIQUES,HENDAYE,13.418687697561548
606,PYRENEES-ATLANTIQUES,LONS,10.499380755526472
607,PYRENEES-ATLANTIQUES,OLORON STE MARIE,8.377807875705987
608,PYRENEES-ATLANTIQUES,ORTHEZ,8.855179489192922
609,PYRENEES-ATLANTIQUES,PAU,10.383556849374902
610,PYRENEES-ATLANTIQUES,ST JEAN DE LUZ,13.012883028780806
611,PYRENEES-ORIENTALES,ARGELES SUR MER,11.568302179396456
612,PYRENEES-ORIENTALES,CANET EN ROUSSILLON,14.871176292310968
613,PYRENEES-ORIENTALES,PERPIGNAN,33.899262990693764
614,PYRENEES-ORIENTALES,ST CYPRIEN,12.69587877036664
615,PYRENEES-ORIENTALES,ST ESTEVE,10.684821701800814
616,RHONE,BRIGNAIS,11.886267372666081
617,RHONE,BRON,14.560118721195645
618,RHONE,CALUIRE ET CUIRE,13.530311272706873
619,RHONE,DECINES CHARPIEU,12.912265007346907
620,RHONE,ECULLY,14.208981314505708
621,RHONE,FRANCHEVILLE,13.278487328128044
622,RHONE,GENAS,12.406659709934655
623,RHONE,GIVORS,9.819789060815868
624,RHONE,LYON 01,18.286865600160063
625,RHONE,LYON 02,17.74659431947565
626,RHONE,LYON 03,16.24499395417368
627,RHONE,LYON 04,16.24511424067564
628,RHONE,LYON 05,16.220787657973542
629,RHONE,LYON 06,21.7337295931293
630,RHONE,LYON 07,17.703998946737876
631,RHONE,LYON 08,14.191886395271437
632,RHONE,LYON 09,13.937789157422342
633,RHONE,MEYZIEU,12.61066585713391
634,RHONE,MIONS,11.307469098110674
635,RHONE,OULLINS,13.851836752669813
636,RHONE,RILLIEUX LA PAPE,13.077000420759974
637,RHONE,ST FONS,10.472252026530734
638,RHONE,ST GENIS LAVAL,12.292063839667914
639,RHONE,ST PRIEST,12.739054495656033
640,RHONE,STE FOY LES LYON,14.902796395172498
641,RHONE,TARARE,7.9129865700638655
642,RHONE,TASSIN LA DEMI LUNE,13.8872769708927
643,RHONE,VAULX EN VELIN,13.526115224525592
644,RHONE,VENISSIEUX,12.618772686870182
645,RHONE,VILLEFRANCHE SUR SAONE,9.787171279197741
646,RHONE,VILLEURBANNE,14.831364216327396
647,SAONE-ET-LOIRE,AUTUN,8.58799094478448
648,SAONE-ET-LOIRE,CHALON SUR SAONE,9.32708442889933
649,SAONE-ET-LOIRE,LE CREUSOT,8.312654719250164
650,SAONE-ET-LOIRE,MACON,7.692336320420425
651,SAONE-ET-LOIRE,MONTCEAU LES MINES,7.725104427736007
652,SARTHE,ALLONNES,8.797823012906138
653,SARTHE,LA FLECHE,7.885862968345165
654,SARTHE,LE MANS,33.29513887519963
655,SARTHE,SABLE SUR SARTHE,5.34305402976131
656,SAVOIE,AIX LES BAINS,12.844978879316848
657,SAVOIE,ALBERTVILLE,10.379179164601982
658,SAVOIE,CHAMBERY,11.3879306022384
659,SAVOIE,LA MOTTE SERVOLEX,14.167927389224225
660,SEINE-ET-MARNE,AVON,13.964457894378963
661,SEINE-ET-MARNE,BRIE COMTE ROBERT,15.406113807199539
662,SEINE-ET-MARNE,BUSSY ST GEORGES,17.32040698085034
663,SEINE-ET-MARNE,CHAMPS SUR MARNE,22.031730862079463
664,SEINE-ET-MARNE,CHELLES,16.222396673225074
665,SEINE-ET-MARNE,CLAYE SOUILLY,18.784448037646783
666,SEINE-ET-MARNE,COMBS LA VILLE,15.3606933507085
667,SEINE-ET-MARNE,COULOMMIERS,13.093070615489134
668,SEINE-ET-MARNE,DAMMARIE LES LYS,13.940496918259173
669,SEINE-ET-MARNE,FONTAINEBLEAU,16.63476470987496
670,SEINE-ET-MARNE,LAGNY SUR MARNE,15.374245648219889
671,SEINE-ET-MARNE,LE MEE SUR SEINE,14.261501378515957
672,SEINE-ET-MARNE,LIEUSAINT,14.885089032814824
673,SEINE-ET-MARNE,LOGNES,17.520276833113595
674,SEINE-ET-MARNE,MEAUX,15.215209761328804
675,SEINE-ET-MARNE,MITRY MORY,17.144895532483943
676,SEINE-ET-MARNE,MOISSY CRAMAYEL,16.98994418187795
677,SEINE-ET-MARNE,MONTEREAU FAULT YONNE,12.58425940648562
678,SEINE-ET-MARNE,NEMOURS,11.95789811168266
679,SEINE-ET-MARNE,NOISIEL,14.71398638990941
680,SEINE-ET-MARNE,OZOIR LA FERRIERE,16.231041446265827
681,SEINE-ET-MARNE,PONTAULT COMBAULT,16.824881574757253
682,SEINE-ET-MARNE,PROVINS,11.24033983962346
683,SEINE-ET-MARNE,ROISSY EN BRIE,16.506443087744927
684,SEINE-ET-MARNE,SAVIGNY LE TEMPLE,14.867551172770991
685,SEINE-ET-MARNE,ST FARGEAU PONTHIERRY,14.449533583420534
686,SEINE-ET-MARNE,TORCY,16.396624670450038
687,SEINE-ET-MARNE,VAIRES SUR MARNE,15.871751691446246
688,SEINE-ET-MARNE,VAUX LE PENIL,14.315130137118137
689,SEINE-ET-MARNE,VILLEPARISIS,17.3428745761303
690,SEINE-MARITIME,BARENTIN,8.54182384421245
691,SEINE-MARITIME,BOIS GUILLAUME BIHOREL,11.341968320008428
692,SEINE-MARITIME,BOLBEC,9.898213339007581
693,SEINE-MARITIME,CANTELEU,10.766306725507429
694,SEINE-MARITIME,DEVILLE LES ROUEN,10.825716529940694
695,SEINE-MARITIME,DIEPPE,27.89783018034738
696,SEINE-MARITIME,ELBEUF,8.78601410810478
697,SEINE-MARITIME,FECAMP,9.644145325735558
698,SEINE-MARITIME,LE GRAND QUEVILLY,11.084764008479183
699,SEINE-MARITIME,LE HAVRE,33.899262990693764
700,SEINE-MARITIME,LE PETIT QUEVILLY,11.257828675916208
701,SEINE-MARITIME,MAROMME,10.562209123604257
702,SEINE-MARITIME,MONT ST AIGNAN,14.951951692782258
703,SEINE-MARITIME,MONTIVILLIERS,11.734398955669485
704,SEINE-MARITIME,OISSEL,8.870643561394061
705,SEINE-MARITIME,ROUEN,33.899262990693764
706,SEINE-MARITIME,SOTTEVILLE LES ROUEN,11.142942720908977
707,SEINE-MARITIME,ST ETIENNE DU ROUVRAY,12.716559445011452
708,SEINE-MARITIME,YVETOT,10.50834389728282
709,SEINE-SAINT-DENIS,AUBERVILLIERS,18.270254987829034
710,SEINE-SAINT-DENIS,AULNAY SOUS BOIS,18.482330852414968
711,SEINE-SAINT-DENIS,BAGNOLET,22.529827247561354
712,SEINE-SAINT-DENIS,BOBIGNY,18.525370821066623
713,SEINE-SAINT-DENIS,BONDY,14.905184275018861
714,SEINE-SAINT-DENIS,CLICHY SOUS BOIS,16.746500290305356
715,SEINE-SAINT-DENIS,DRANCY,19.74794323597358
716,SEINE-SAINT-DENIS,EPINAY SUR SEINE,15.767978128785586
717,SEINE-SAINT-DENIS,GAGNY,17.342993812552034
718,SEINE-SAINT-DENIS,LA COURNEUVE,37.4154778532737
719,SEINE-SAINT-DENIS,LE BLANC MESNIL,24.66444554655245
720,SEINE-SAINT-DENIS,LE BOURGET,27.78213969820257
721,SEINE-SAINT-DENIS,LE PRE ST GERVAIS,22.784922815100234
722,SEINE-SAINT-DENIS,LE RAINCY,17.8943130522558
723,SEINE-SAINT-DENIS,LES LILAS,22.029053331413344
724,SEINE-SAINT-DENIS,LES PAVILLONS SOUS BOIS,19.092159524763936
725,SEINE-SAINT-DENIS,LIVRY GARGAN,17.67211744009711
726,SEINE-SAINT-DENIS,MONTFERMEIL,18.311035728297384
727,SEINE-SAINT-DENIS,MONTREUIL,27.266384954375834
728,SEINE-SAINT-DENIS,NEUILLY PLAISANCE,19.853314170490346
729,SEINE-SAINT-DENIS,NEUILLY SUR MARNE,16.798871690197014
730,SEINE-SAINT-DENIS,NOISY LE GRAND,16.988866732351546
731,SEINE-SAINT-DENIS,NOISY LE SEC,18.515274483987714
732,SEINE-SAINT-DENIS,PANTIN,24.368714056793603
733,SEINE-SAINT-DENIS,PIERREFITTE SUR SEINE,14.301662668047914
734,SEINE-SAINT-DENIS,ROMAINVILLE,20.402668756783324
735,SEINE-SAINT-DENIS,ROSNY SOUS BOIS,25.215950051692246
736,SEINE-SAINT-DENIS,SEVRAN,16.99702932955627
737,SEINE-SAINT-DENIS,ST DENIS,31.396331633528845
738,SEINE-SAINT-DENIS,ST OUEN,29.51976187007617
739,SEINE-SAINT-DENIS,STAINS,42.546060444658636
740,SEINE-SAINT-DENIS,TREMBLAY EN FRANCE,17.731363938949926
741,SEINE-SAINT-DENIS,VILLEMOMBLE,18.272592497961238
742,SEINE-SAINT-DENIS,VILLEPINTE,15.956592869853722
743,SEINE-SAINT-DENIS,VILLETANEUSE,11.025520449521004
744,SOMME,ABBEVILLE,9.855950612531464
745,SOMME,ALBERT,8.796481546368422
746,SOMME,AMIENS,33.899262990693764
747,TARN,ALBI,10.844127844915104
748,TARN,CARMAUX,7.1358283200912025
749,TARN,CASTRES,7.507109760935262
750,TARN,GAILLAC,7.831186589660577
751,TARN,GRAULHET,6.845679594513449
752,TARN,LAVAUR,8.395743500959995
753,TARN,MAZAMET,7.8866762948226015
754,TARN-ET-GARONNE,CASTELSARRASIN,7.830338205538882
755,TARN-ET-GARONNE,MOISSAC,6.973909728203639
756,TARN-ET-GARONNE,MONTAUBAN,8.253417905343023
757,TERRITOIRE DE BELFORT,BELFORT,9.519932062465143
758,VAL-D'OISE,ARGENTEUIL,17.694995365212936
759,VAL-D'OISE,ARNOUVILLE,18.005491893167285
760,VAL-D'OISE,BEZONS,17.382093198080703
761,VAL-D'OISE,CERGY,14.718137741888919
762,VAL-D'OISE,CORMEILLES EN PARISIS,18.264249067235713
763,VAL-D'OISE,DEUIL LA BARRE,16.426921989915357
764,VAL-D'OISE,DOMONT,16.13673400825334
765,VAL-D'OISE,EAUBONNE,16.397639696787447
766,VAL-D'OISE,ENGHIEN LES BAINS,24.20927441052359
767,VAL-D'OISE,ERAGNY,16.13557810140613
768,VAL-D'OISE,ERMONT,22.931822275208418
769,VAL-D'OISE,FRANCONVILLE,16.742365855007495
770,VAL-D'OISE,GARGES LES GONESSE,16.632833823332426
771,VAL-D'OISE,GONESSE,17.48414367204274
772,VAL-D'OISE,GOUSSAINVILLE,17.027783200280798
773,VAL-D'OISE,HERBLAY,17.82751706686106
774,VAL-D'OISE,JOUY LE MOUTIER,15.403361664280729
775,VAL-D'OISE,L ISLE ADAM,19.4561723416694
776,VAL-D'OISE,MONTIGNY LES CORMEILLES,16.440622047041256
777,VAL-D'OISE,MONTMAGNY,15.886416079669662
778,VAL-D'OISE,MONTMORENCY,17.607166476337586
779,VAL-D'OISE,OSNY,15.728415832554388
780,VAL-D'OISE,PERSAN,15.338947445372165
781,VAL-D'OISE,PONTOISE,18.435141050888703
782,VAL-D'OISE,SANNOIS,16.7664349553342
783,VAL-D'OISE,SARCELLES,16.15805210281496
784,VAL-D'OISE,SOISY SOUS MONTMORENCY,17.510486762448597
785,VAL-D'OISE,ST BRICE SOUS FORET,16.91940224428856
786,VAL-D'OISE,ST GRATIEN,18.808026689035525
787,VAL-D'OISE,ST LEU LA FORET,18.020313995849694
788,VAL-D'OISE,ST OUEN L AUMONE,17.304825448413535
789,VAL-D'OISE,TAVERNY,17.344080454566967
790,VAL-D'OISE,VAUREAL,18.158349935448072
791,VAL-DE-MARNE,ALFORTVILLE,21.24707532955974
792,VAL-DE-MARNE,ARCUEIL,21.79388304105424
793,VAL-DE-MARNE,BOISSY ST LEGER,19.588819862566094
794,VAL-DE-MARNE,BONNEUIL SUR MARNE,15.72478161912216
795,VAL-DE-MARNE,BRY SUR MARNE,17.850371550284315
796,VAL-DE-MARNE,CACHAN,19.891497584984098
797,VAL-DE-MARNE,CHAMPIGNY SUR MARNE,20.007235509777995
798,VAL-DE-MARNE,CHARENTON LE PONT,31.36112935976226
799,VAL-DE-MARNE,CHENNEVIERES SUR MARNE,17.227359542132938
800,VAL-DE-MARNE,CHEVILLY LARUE,27.80638024701133
801,VAL-DE-MARNE,CHOISY LE ROI,19.454289018116803
802,VAL-DE-MARNE,CRETEIL,17.45590256077345
803,VAL-DE-MARNE,FONTENAY SOUS BOIS,25.402461415149574
804,VAL-DE-MARNE,FRESNES,15.824503821826848
805,VAL-DE-MARNE,GENTILLY,21.928583094099626
806,VAL-DE-MARNE,IVRY SUR SEINE,22.378386944399384
807,VAL-DE-MARNE,JOINVILLE LE PONT,23.128133213851633
808,VAL-DE-MARNE,L HAY LES ROSES,17.248687551686924
809,VAL-DE-MARNE,LA QUEUE EN BRIE,17.021386221191463
810,VAL-DE-MARNE,LE KREMLIN BICETRE,21.811604687292295
811,VAL-DE-MARNE,LE PERREUX SUR MARNE,23.851006729180902
812,VAL-DE-MARNE,LE PLESSIS TREVISE,17.854714976120373
813,VAL-DE-MARNE,LIMEIL BREVANNES,16.73214236954691
814,VAL-DE-MARNE,MAISONS ALFORT,20.920301060612648
815,VAL-DE-MARNE,NOGENT SUR MARNE,22.710942443836025
816,VAL-DE-MARNE,ORLY,15.04800980099335
817,VAL-DE-MARNE,ST MANDE,28.28547919019464
818,VAL-DE-MARNE,ST MAUR DES FOSSES,29.652819803575383
819,VAL-DE-MARNE,ST MAURICE,23.44673770002409
820,VAL-DE-MARNE,SUCY EN BRIE,18.808287823200097
821,VAL-DE-MARNE,THIAIS,16.820642138896723
822,VAL-DE-MARNE,VALENTON,16.595381525814588
823,VAL-DE-MARNE,VILLEJUIF,17.626108839752494
824,VAL-DE-MARNE,VILLENEUVE LE ROI,21.290405538889072
825,VAL-DE-MARNE,VILLENEUVE ST GEORGES,18.50872810790258
826,VAL-DE-MARNE,VILLIERS SUR MARNE,18.20421803242511
827,VAL-DE-MARNE,VINCENNES,29.852546196734828
828,VAL-DE-MARNE,VITRY SUR SEINE,18.631040362240505
829,VAR,BRIGNOLES,14.50417774695483
830,VAR,COGOLIN,17.20457040563566
831,VAR,CUERS,11.607513907837754
832,VAR,DRAGUIGNAN,11.280546261461517
833,VAR,FREJUS,17.04223694942275
834,VAR,HYERES,14.36348142819682
835,VAR,LA CRAU,13.068840519455525
836,VAR,LA GARDE,12.783816106058664
837,VAR,LA SEYNE SUR MER,13.324973988541366
838,VAR,LA VALETTE DU VAR,13.192308131205962
839,VAR,LE PRADET,13.45701754812155
840,VAR,OLLIOULES,13.733697172980557
841,VAR,ROQUEBRUNE SUR ARGENS,28.904058152939513
842,VAR,SANARY SUR MER,15.492856494737978
843,VAR,SIX FOURS LES PLAGES,15.598266547569608
844,VAR,SOLLIES PONT,13.065912181063227
845,VAR,ST CYR SUR MER,15.135770278840125
846,VAR,ST MAXIMIN LA STE BAUME,12.235875904924102
847,VAR,ST RAPHAEL,15.906343035650712
848,VAR,STE MAXIME,17.74148866482351
849,VAR,TOULON,31.893089890260594
850,VAR,VIDAUBAN,11.2637932992128
851,VAUCLUSE,APT,9.342459226471824
852,VAUCLUSE,AVIGNON,22.337459278148735
853,VAUCLUSE,BOLLENE,8.991156555979536
854,VAUCLUSE,CARPENTRAS,9.714550729048636
855,VAUCLUSE,CAVAILLON,10.392285302979323
856,VAUCLUSE,L ISLE SUR LA SORGUE,12.641950491492558
857,VAUCLUSE,LE PONTET,10.864084252532846
858,VAUCLUSE,MONTEUX,10.251812791683298
859,VAUCLUSE,ORANGE,9.907066847712251
860,VAUCLUSE,PERNES LES FONTAINES,10.191062280603314
861,VAUCLUSE,PERTUIS,11.236808645159476
862,VAUCLUSE,SORGUES,11.247543178390094
863,VAUCLUSE,VEDENE,11.463997113997115
864,VENDEE,CHALLANS,10.552449963491254
865,VENDEE,CHATEAU D OLONNE,10.717890891250843
866,VENDEE,FONTENAY LE COMTE,9.220683688464522
867,VENDEE,LA ROCHE SUR YON,9.156645200088464
868,VENDEE,LES HERBIERS,9.954480419293498
869,VENDEE,LES SABLES D OLONNE,11.288743582828605
870,VENDEE,OLONNE SUR MER,10.664988471806243
871,VENDEE,ST HILAIRE DE RIEZ,8.967980928878669
872,VIENNE,BUXEROLLES,9.471494077991546
873,VIENNE,CHATELLERAULT,8.364643927285078
874,VIENNE,POITIERS,10.413924867613838
875,VOSGES,EPINAL,7.94493440326196
876,VOSGES,ST DIE DES VOSGES,7.743698433955234
877,YONNE,AUXERRE,8.174097172507237
878,YONNE,SENS,9.608737155432111
879,YVELINES,ACHERES,17.337877273849603
880,YVELINES,ANDRESY,15.454917041580213
881,YVELINES,AUBERGENVILLE,12.360565834263513
882,YVELINES,BOIS D ARCY,16.028527545790443
883,YVELINES,CARRIERES SOUS POISSY,16.555809145165288
884,YVELINES,CARRIERES SUR SEINE,19.397141987969633
885,YVELINES,CHATOU,19.864093841686607
886,YVELINES,CONFLANS STE HONORINE,15.282875767889664
887,YVELINES,CROISSY SUR SEINE,20.032282880150856
888,YVELINES,ELANCOURT,15.526385656102443
889,YVELINES,FONTENAY LE FLEURY,16.816072942099623
890,YVELINES,GUYANCOURT,16.50879589740694
891,YVELINES,HOUILLES,19.26019147976411
892,YVELINES,LA CELLE ST CLOUD,21.32820402566039
893,YVELINES,LE CHESNAY,18.7428573586179
894,YVELINES,LE PECQ,20.093113863116933
895,YVELINES,LE VESINET,25.5110492024842
896,YVELINES,LES CLAYES SOUS BOIS,15.089731398381048
897,YVELINES,LES MUREAUX,20.502727244894132
898,YVELINES,LIMAY,13.751165435350364
899,YVELINES,MAISONS LAFFITTE,20.87587318056475
900,YVELINES,MANTES LA JOLIE,14.599197985392538
901,YVELINES,MANTES LA VILLE,33.29513887519963
902,YVELINES,MARLY LE ROI,19.653108330199643
903,YVELINES,MAUREPAS,20.089595508173403
904,YVELINES,MONTESSON,19.612752193148598
905,YVELINES,MONTIGNY LE BRETONNEUX,17.022615435901287
906,YVELINES,PLAISIR,15.618528482413888
907,YVELINES,POISSY,17.664794902455817
908,YVELINES,RAMBOUILLET,15.105329769771298
909,YVELINES,SARTROUVILLE,16.50687347865214
910,YVELINES,ST CYR L ECOLE,18.28961722605946
911,YVELINES,ST GERMAIN EN LAYE,20.990177290245388
912,YVELINES,TRAPPES,13.906216106546813
913,YVELINES,TRIEL SUR SEINE,14.751454683184932
914,YVELINES,VELIZY VILLACOUBLAY,17.67161279534174
915,YVELINES,VERNEUIL SUR SEINE,16.95661175406191
916,YVELINES,VERSAILLES,26.0827270952295
917,YVELINES,VIROFLAY,20.36113234711834
918,YVELINES,VOISINS LE BRETONNEUX,17.85134950730988
